﻿<?xml version="1.0" encoding="utf-8"?>
<svg version="1.1" xmlns:xlink="http://www.w3.org/1999/xlink" width="150px" height="150px" xmlns="http://www.w3.org/2000/svg">
  <g transform="matrix(1 0 0 1 -800 -140 )">
    <path d="M 875 140  C 917 140  950 173  950 215  C 950 257  917 290  875 290  C 833 290  800 257  800 215  C 800 173  833 140  875 140  Z " fill-rule="nonzero" fill="#ffc107" stroke="none" />
  </g>
</svg>