﻿<?xml version="1.0" encoding="utf-8"?>
<svg version="1.1" xmlns:xlink="http://www.w3.org/1999/xlink" width="170px" height="170px" xmlns="http://www.w3.org/2000/svg">
  <g transform="matrix(1 0 0 1 -935 -435 )">
    <path d="M 1020 437  C 1066.48 437  1103 473.52  1103 520  C 1103 566.48  1066.48 603  1020 603  C 973.52 603  937 566.48  937 520  C 937 473.52  973.52 437  1020 437  Z " fill-rule="nonzero" fill="#ffffff" stroke="none" fill-opacity="0" />
    <path d="M 1020 436.5  C 1066.76 436.5  1103.5 473.24  1103.5 520  C 1103.5 566.76  1066.76 603.5  1020 603.5  C 973.24 603.5  936.5 566.76  936.5 520  C 936.5 473.24  973.24 436.5  1020 436.5  Z " stroke-width="3" stroke="#ff5722" fill="none" />
  </g>
</svg>