﻿<?xml version="1.0" encoding="utf-8"?>
<svg version="1.1" xmlns:xlink="http://www.w3.org/1999/xlink" width="25px" height="19px" xmlns="http://www.w3.org/2000/svg">
  <g transform="matrix(1 0 0 1 -340 -19 )">
    <path d="M 25 2.375  C 25 1.06330729166667  23.95068359375 0  22.65625 0  L 2.34375 0  C 1.04931640625 0  0 1.06330729166667  0 2.375  L 0 16.625  C 0 17.9366927083333  1.04931640625 19  2.34375 19  L 22.65625 19  C 23.95068359375 19  25 17.9366927083333  25 16.625  L 25 2.375  Z M 2.34375 2.375  L 22.65625 2.375  L 22.65625 4.39399739583333  C 21.56142578125 5.2974375  19.816015625 6.70225  16.084619140625 9.66303385416667  C 15.2623046875 10.318484375  13.6333984375 11.8931588541667  12.5 11.8748020833333  C 11.366796875 11.8933567708333  9.737353515625 10.3182369791667  8.915380859375 9.66303385416667  C 5.1845703125 6.7026953125  3.438720703125 5.2975859375  2.34375 4.39399739583333  L 2.34375 2.375  Z M 22.65625 16.625  L 2.34375 16.625  L 2.34375 7.44156770833333  C 3.46259765625 8.34461197916667  5.049267578125 9.61182291666667  7.46767578125 11.5308229166667  C 8.534912109375 12.3821119791667  10.40390625 14.2613802083333  12.5 14.2499505208333  C 14.585791015625 14.2613802083333  16.431103515625 12.409375  17.531884765625 11.53121875  C 19.950244140625 9.61226822916666  21.537353515625 8.3447109375  22.65625 7.4416171875  L 22.65625 16.625  Z " fill-rule="nonzero" fill="#ffffff" stroke="none" transform="matrix(1 0 0 1 340 19 )" />
  </g>
</svg>