﻿<?xml version="1.0" encoding="utf-8"?>
<svg version="1.1" xmlns:xlink="http://www.w3.org/1999/xlink" width="79px" height="81px" xmlns="http://www.w3.org/2000/svg">
  <g transform="matrix(1 0 0 1 -781 -340 )">
    <path d="M 78.6986884846559 71.9558617584551  L 61.3898396584966 80.9565520671494  C 47.7031090485023 54.2207031906261  26.7290866622276 32.0590863533708  0.933916164502875 16.9378498134049  L 10.8634130701112 0.206223189980506  C 39.7211535384685 17.3320443150012  63.2170183672965 42.183713288408  78.6986884846559 71.9558617584551  Z " fill-rule="nonzero" fill="#ffc107" stroke="none" transform="matrix(1 0 0 1 781 340 )" />
  </g>
</svg>