﻿<?xml version="1.0" encoding="utf-8"?>
<svg version="1.1" xmlns:xlink="http://www.w3.org/1999/xlink" width="109px" height="29px" xmlns="http://www.w3.org/2000/svg">
  <g transform="matrix(1 0 0 1 -646 -646 )">
    <path d="M 0.832856210138743 20.9687611783845  L 6.41197198751695 2.92315143439748  C 20.5203084403512 6.88554835150615  35.4718199044719 9  51 9  C 69.0565398980713 9  86.3333317897077 6.14092397640547  102.411341001759 0.841805223240499  L 108.677197912363 20.4946180743065  C 90.9987923586469 26.1309796703115  72.5551770393762 29  54 29  C 35.9754698401508 29  18.0531680013149 26.2927211047922  0.832856210138743 20.9687611783845  Z " fill-rule="nonzero" fill="#9e9e9e" stroke="none" transform="matrix(1 0 0 1 646 646 )" />
  </g>
</svg>