﻿<?xml version="1.0" encoding="utf-8"?>
<svg version="1.1" xmlns:xlink="http://www.w3.org/1999/xlink" width="12px" height="12px" xmlns="http://www.w3.org/2000/svg">
  <g transform="matrix(1 0 0 1 -694 -252 )">
    <path d="M 700 252  C 703.36 252  706 254.64  706 258  C 706 261.36  703.36 264  700 264  C 696.64 264  694 261.36  694 258  C 694 254.64  696.64 252  700 252  Z " fill-rule="nonzero" fill="#ffffff" stroke="none" />
  </g>
</svg>