﻿<?xml version="1.0" encoding="utf-8"?>
<svg version="1.1" xmlns:xlink="http://www.w3.org/1999/xlink" width="170px" height="170px" xmlns="http://www.w3.org/2000/svg">
  <g transform="matrix(1 0 0 1 -510 -730 )">
    <path d="M 595 732  C 641.48 732  678 768.52  678 815  C 678 861.48  641.48 898  595 898  C 548.52 898  512 861.48  512 815  C 512 768.52  548.52 732  595 732  Z " fill-rule="nonzero" fill="#ffffff" stroke="none" fill-opacity="0" />
    <path d="M 595 731.5  C 641.76 731.5  678.5 768.24  678.5 815  C 678.5 861.76  641.76 898.5  595 898.5  C 548.24 898.5  511.5 861.76  511.5 815  C 511.5 768.24  548.24 731.5  595 731.5  Z " stroke-width="3" stroke="#f44336" fill="none" />
  </g>
</svg>